<?xml version="1.0" standalone="no"?>
<!DOCTYPE svg PUBLIC "-//W3C//DTD SVG 1.1//EN" "http://www.w3.org/Graphics/SVG/1.1/DTD/svg11.dtd" >
<svg xmlns="http://www.w3.org/2000/svg">
<metadata>Generated by IcoMoon</metadata>
<defs>
<font id="icons" horiz-adv-x="1024">
<font-face units-per-em="1024" ascent="960" descent="-64" />
<missing-glyph horiz-adv-x="1024" />
<glyph unicode="&#x20;" d="" horiz-adv-x="512" />
<glyph unicode="&#xe600;" d="M511.992-63.985c-282.317 0-511.992 229.675-511.992 511.977 0 282.317 229.675 511.992 511.992 511.992s512.008-229.675 512.008-511.992c0-282.302-229.69-511.977-512.008-511.977zM511.992 898.052c-248.162 0-450.060-201.898-450.060-450.060s201.898-450.045 450.060-450.045 450.076 201.898 450.076 450.045-201.914 450.060-450.076 450.060zM279.004 478.958h466.008v-61.932h-466.008v61.932zM279.004 643.713h466.008v-61.932h-466.008v61.932zM278.988 314.219h466.023v-61.932h-466.023v61.932z" />
<glyph unicode="&#xe601;" d="M511.992 960c-282.317 0-511.992-229.675-511.992-511.992s229.675-511.992 511.992-511.992 512.008 229.675 512.008 511.992-229.69 511.992-512.008 511.992zM511.992-2.052c-248.162 0-450.060 201.898-450.060 450.060s201.898 450.060 450.060 450.060 450.076-201.898 450.076-450.060-201.914-450.060-450.076-450.060zM698.655 590.87l-142.877-142.862 142.877-142.846-43.801-43.801-142.846 142.862-142.846-142.862-43.801 43.786 142.862 142.862-142.877 142.877 43.801 43.801 142.877-142.893 142.862 142.877 43.77-43.801z" />
<glyph unicode="&#xe602;" d="M488.404 356.671c6.836-6.836 14.71-10.246 23.601-10.246s16.751 3.407 23.583 10.246l478.18 478.158c6.836 6.839 10.232 14.71 10.232 23.601s-3.418 16.765-10.232 23.601l-51.299 51.313c-6.836 6.839-14.71 10.253-23.612 10.253-8.88 0-16.751-3.414-23.587-10.253l-403.265-403.251-403.247 403.251c-6.839 6.839-14.71 10.253-23.601 10.253-8.895 0-16.765-3.414-23.601-10.253l-51.292-51.313c-6.85-6.836-10.264-14.695-10.264-23.601s3.425-16.765 10.264-23.601l478.14-478.158zM962.469 539.326c-6.836 6.839-14.71 10.253-23.612 10.253-8.88 0-16.751-3.414-23.587-10.253l-403.265-403.247-403.247 403.258c-6.839 6.839-14.71 10.253-23.601 10.253-8.895 0-16.765-3.414-23.601-10.253l-51.292-51.31c-6.85-6.839-10.264-14.71-10.264-23.597 0-8.891 3.425-16.765 10.264-23.612l478.14-478.151c6.836-6.839 14.71-10.257 23.601-10.257s16.751 3.418 23.583 10.257l478.18 478.151c6.836 6.839 10.232 14.71 10.232 23.594 0 8.891-3.418 16.751-10.232 23.601l-51.299 51.313z" />
<glyph unicode="&#xe603;" d="M307.2 499.2v-102.4h153.6v-153.6h102.4v153.6h153.6v102.4h-153.6v153.6h-102.4v-153.6zM51.2 908.8v-921.6h921.6v921.6h-921.6zM870.4 89.6h-716.8v716.8h716.8v-716.8z" />
<glyph unicode="&#xe604;" d="M882.063 397.805l-588.047-383.184c-34.858-18.975-74.842-10.504-74.842 51.208v754.518c0 61.275 42.892 72.185 74.843 51.175l588.047-383.183c33.887-23.979 32.918-68.496-0.001-90.535zM281.168 795.181v-704.216l557.971 352.109-557.971 352.108z" />
<glyph unicode="&#xe605;" d="M37.611 620.667h540.346v163.94c0 15.339 8.925 29.214 22.717 35.285 13.759 6.050 29.791 3.209 40.714-7.338l349.128-336.605c7.525-7.263 11.788-17.374 11.788-27.947s-4.264-20.684-11.788-27.95l-349.128-336.602c-7.127-6.872-16.415-10.481-25.823-10.481-5.030 0-10.101 1.034-14.891 3.146-13.792 6.065-22.717 19.946-22.717 35.282v163.94h-540.346c-20.775 0-37.611 17.209-37.611 38.422v268.484c0 21.219 16.839 38.422 37.611 38.422zM75.222 352.192h540.343c20.772 0 37.617-17.206 37.617-38.428v-113.265l256.71 247.507-256.71 247.51v-113.271c0-21.222-16.845-38.425-37.617-38.425h-540.343v-191.628z" />
<glyph unicode="&#xe606;" d="M964.694 620.667h-540.346v163.94c0 15.339-8.925 29.214-22.717 35.285-13.759 6.050-29.791 3.209-40.714-7.338l-349.128-336.605c-7.525-7.263-11.788-17.374-11.788-27.947s4.264-20.684 11.788-27.95l349.128-336.602c7.127-6.872 16.415-10.481 25.823-10.481 5.030 0 10.101 1.034 14.891 3.146 13.792 6.065 22.717 19.946 22.717 35.282v163.94h540.346c20.775 0 37.611 17.209 37.611 38.422v268.484c0 21.219-16.839 38.422-37.611 38.422zM927.083 352.192h-540.343c-20.772 0-37.617-17.206-37.617-38.428v-113.265l-256.71 247.507 256.71 247.51v-113.271c0-21.222 16.845-38.425 37.617-38.425h540.343v-191.628z" />
</font></defs></svg>