<?xml version="1.0" encoding="UTF-8" standalone="no"?>
<!-- Created with Inkscape (http://www.inkscape.org/) -->

<svg
   xmlns:dc="http://purl.org/dc/elements/1.1/"
   xmlns:cc="http://creativecommons.org/ns#"
   xmlns:rdf="http://www.w3.org/1999/02/22-rdf-syntax-ns#"
   xmlns:svg="http://www.w3.org/2000/svg"
   xmlns="http://www.w3.org/2000/svg"
   xmlns:sodipodi="http://sodipodi.sourceforge.net/DTD/sodipodi-0.dtd"
   xmlns:inkscape="http://www.inkscape.org/namespaces/inkscape"
   width="2971"
   height="764.39294"
   id="svg2"
   version="1.1"
   inkscape:version="0.48.5 r10040"
   sodipodi:docname="lilia_azur_logo_0088ff.svg"
   inkscape:export-filename="C:\wwwebify\projects\0_Lilia\1_Experiments\images\lilia_azur_logo_flower_white.png"
   inkscape:export-xdpi="300"
   inkscape:export-ydpi="300">
  <defs
     id="defs4" />
  <sodipodi:namedview
     id="base"
     pagecolor="#ffffff"
     bordercolor="#666666"
     borderopacity="1.0"
     inkscape:pageopacity="0.0"
     inkscape:pageshadow="2"
     inkscape:zoom="0.22627418"
     inkscape:cx="1769.8097"
     inkscape:cy="1131.1194"
     inkscape:document-units="px"
     inkscape:current-layer="layer1"
     showgrid="false"
     fit-margin-top="200"
     fit-margin-left="200"
     fit-margin-right="200"
     fit-margin-bottom="200"
     showborder="true"
     inkscape:window-width="1920"
     inkscape:window-height="1018"
     inkscape:window-x="1912"
     inkscape:window-y="31"
     inkscape:window-maximized="1"
     inkscape:showpageshadow="false"
     inkscape:object-paths="true" />
  <metadata
     id="metadata7">
    <rdf:RDF>
      <cc:Work
         rdf:about="">
        <dc:format>image/svg+xml</dc:format>
        <dc:type
           rdf:resource="http://purl.org/dc/dcmitype/StillImage" />
        <dc:title></dc:title>
      </cc:Work>
    </rdf:RDF>
  </metadata>
  <g
     inkscape:label="Layer 1"
     inkscape:groupmode="layer"
     id="layer1"
     transform="translate(1365.409,115.80039)">
    <g
       transform="matrix(3.3706,0,0,3.3706,-3496.1819,-2886.2768)"
       style="font-size:144px;font-style:normal;font-variant:normal;font-weight:normal;font-stretch:normal;text-align:start;line-height:89.99999762%;letter-spacing:0px;word-spacing:0px;writing-mode:lr-tb;text-anchor:start;fill:#000000;fill-opacity:1;stroke:#000000;stroke-width:0.31962943;stroke-miterlimit:4;stroke-opacity:1;font-family:Segoe Script;-inkscape-font-specification:Segoe Script"
       id="flowRoot3025-8">
      <path
         d="m 737.05469,974.34111 c -0.93759,1.17188 -2.13291,2.1211 -3.58594,2.84766 -1.45321,0.72656 -2.74227,1.08984 -3.86719,1.08984 -0.65633,0 -1.47664,0.0117 -2.46094,0.0352 -0.98445,0.0234 -2.00398,0.0469 -3.05859,0.0703 -1.05477,0.0234 -2.0743,0.0469 -3.05859,0.0703 -0.98445,0.0234 -1.80477,0.0352 -2.46094,0.0352 -3.00007,0 -6.12897,0.24609 -9.38672,0.73828 -3.25787,0.49219 -6.50396,1.125 -9.73828,1.89844 -3.23443,0.77343 -6.43364,1.59375 -9.59766,2.46093 -3.1641,0.86719 -6.15238,1.6875 -8.96484,2.46094 -2.81253,0.77343 -5.42581,1.40625 -7.83984,1.89844 -2.41409,0.49218 -4.48831,0.73827 -6.22266,0.73828 -2.81252,-1e-5 -5.00392,-0.64454 -6.57422,-1.93359 -1.57033,-1.28907 -2.40236,-2.82422 -2.49609,-4.60547 -0.0938,-1.125 -0.0938,-2.46094 0,-4.00782 0.0937,-1.54686 0.28123,-3.23436 0.5625,-5.0625 0.28123,-1.82811 0.60936,-3.7617 0.98437,-5.80078 0.37499,-2.03904 0.79686,-4.11326 1.26563,-6.22265 0.28123,-1.40623 0.64451,-3.23435 1.08984,-5.48438 0.4453,-2.24997 0.87889,-4.60544 1.30078,-7.0664 0.42186,-2.46091 0.82029,-4.85153 1.19531,-7.17188 0.37498,-2.32027 0.67967,-4.23042 0.91407,-5.73047 0.5156,-3.42182 0.99607,-6.50385 1.4414,-9.24609 0.44529,-2.74213 0.86717,-5.37885 1.26563,-7.91016 0.39841,-2.53118 0.78513,-5.09759 1.16015,-7.69922 0.37498,-2.60148 0.72654,-5.51945 1.05469,-8.7539 0.28123,-3.51554 0.48044,-6.65617 0.59766,-9.42188 0.11716,-2.76553 0.42185,-5.09756 0.91406,-6.99609 0.49216,-1.89834 1.28903,-3.35146 2.39063,-4.35938 1.10153,-1.00771 2.80074,-1.51161 5.09765,-1.51172 1.31247,1.1e-4 2.40231,0.25792 3.26953,0.77344 0.86715,0.51573 1.58199,1.19542 2.14453,2.03906 0.56246,0.84385 0.98434,1.80479 1.26563,2.88282 0.28121,1.07822 0.46871,2.15634 0.5625,3.23437 0.0468,0.32822 -0.10551,1.38291 -0.45703,3.16406 -0.35161,1.78134 -0.80864,3.99618 -1.3711,6.64454 -0.56254,2.64851 -1.19535,5.58992 -1.89843,8.82421 -0.70317,3.23445 -1.39457,6.5157 -2.07422,9.84375 -0.67972,3.32819 -1.31254,6.55084 -1.89844,9.66797 -0.58597,3.11724 -1.043,5.84771 -1.37109,8.19141 -0.28129,2.06254 -0.62113,4.27739 -1.01953,6.64453 -0.39847,2.36723 -0.80863,4.75785 -1.23047,7.17188 -0.42191,2.41409 -0.84378,4.81643 -1.26563,7.20703 -0.4219,2.39065 -0.7969,4.62893 -1.125,6.71484 -0.32815,2.08596 -0.57424,3.96095 -0.73828,5.625 -0.16409,1.66408 -0.19925,2.98829 -0.10547,3.97266 0.0937,0.84376 0.44529,1.61719 1.05469,2.32031 0.60935,0.70313 1.42966,1.05469 2.46094,1.05469 1.12496,0 2.54293,-0.15234 4.2539,-0.45703 1.7109,-0.30468 3.53903,-0.70312 5.48438,-1.19532 1.94527,-0.49218 3.92573,-1.03124 5.9414,-1.61718 2.01558,-0.58593 3.93745,-1.13671 5.76563,-1.65235 0.42182,-0.14061 1.23041,-0.33983 2.42578,-0.59765 1.19526,-0.2578 2.57807,-0.55077 4.14844,-0.87891 1.57025,-0.32811 3.24603,-0.65624 5.02734,-0.98438 1.78119,-0.32811 3.45697,-0.63279 5.02735,-0.91406 1.57024,-0.28123 2.96477,-0.51561 4.18359,-0.70312 1.21868,-0.18749 2.06242,-0.28124 2.53125,-0.28125 0.6093,10e-6 1.46477,-0.0703 2.56641,-0.21094 1.10148,-0.14061 2.35538,-0.2578 3.76171,-0.35156 1.40617,-0.0937 2.92961,-0.14061 4.57032,-0.14063 1.64053,2e-5 3.28116,0.16408 4.92187,0.49219 0.84366,0.18752 1.47647,0.59767 1.89844,1.23047 0.42178,0.63283 0.65616,1.37111 0.70312,2.21484 0.0468,0.84376 -0.047,1.68751 -0.28125,2.53125 -0.23446,0.84376 -0.58603,1.57032 -1.05468,2.17969 z"
         style="letter-spacing:0.00255704px;stroke:#000000;font-family:Segoe Script;-inkscape-font-specification:Segoe Script"
         id="path4045"
         inkscape:connector-curvature="0" />
      <path
         d="m 783.53381,879.7708 c -5e-5,3.04697 -0.79692,5.64853 -2.39063,7.80468 -1.54691,2.15635 -3.82035,3.23447 -6.82031,3.23438 -1.87503,9e-5 -3.96097,-0.28116 -6.25781,-0.84375 -2.25003,-0.56241 -3.37503,-1.47647 -3.375,-2.74219 -3e-5,-2.29678 0.71482,-4.48818 2.14453,-6.57422 1.42966,-2.08583 3.15231,-3.78505 5.16797,-5.09765 1.59371,-0.9374 2.6484,-1.40614 3.16406,-1.40625 2.67184,1.1e-4 4.73433,0.36339 6.1875,1.08984 1.45308,0.72667 2.17964,2.23839 2.17969,4.53516 z m 46.05468,57.16406 c 0.0468,0.98442 -0.3868,2.32036 -1.30078,4.00781 -0.91415,1.68754 -2.15633,3.5977 -3.72656,5.73047 -1.57039,2.13285 -3.39852,4.418 -5.48438,6.85547 -2.08601,2.43753 -4.27741,4.87502 -6.57421,7.3125 -2.62507,2.81252 -5.40241,5.51955 -8.33204,8.12109 -2.92974,2.60158 -6.05865,5.12111 -9.38671,7.5586 -6.56255,4.875 -12.42192,7.3125 -17.57813,7.3125 -5.6719,0 -10.07815,-1.89844 -13.21875,-5.69532 -3.14064,-3.84374 -5.27345,-8.48436 -6.39844,-13.92187 -1.12501,-5.3906 -1.68751,-10.94528 -1.6875,-16.66406 -10e-6,-2.39059 0.28124,-6.11715 0.84375,-11.17969 0.28124,-2.5312 0.56249,-4.71089 0.84375,-6.53906 0.28124,-1.82807 0.58592,-3.30463 0.91407,-4.42969 0.65623,-2.20307 2.03904,-4.12494 4.14843,-5.76563 2.15623,-1.73431 4.40623,-2.60149 6.75,-2.60156 1.2656,7e-5 1.89841,1.19538 1.89844,3.58594 -3e-5,1.59381 -0.15237,3.3985 -0.45703,5.41406 -0.30472,2.01568 -0.62112,4.00787 -0.94922,5.97656 -0.6094,3.70318 -1.05471,7.01958 -1.33594,9.94922 -0.28127,2.92973 -0.4219,5.47269 -0.42187,7.62891 -3e-5,4.7344 0.65622,9.51565 1.96875,14.34375 1.31247,4.92189 3.67965,7.38282 7.10156,7.38281 3.46871,10e-6 7.49996,-1.26561 12.09375,-3.79687 2.29683,-1.31249 4.5937,-2.76561 6.89063,-4.35938 2.29681,-1.59373 4.59369,-3.37498 6.89062,-5.34375 2.34369,-1.96872 4.59368,-3.94919 6.75,-5.9414 2.15618,-1.99216 4.26555,-4.04294 6.32813,-6.15235 2.06242,-2.10933 3.91398,-4.07808 5.55468,-5.90625 1.64055,-1.82808 3.07023,-3.51558 4.28907,-5.0625 0.0468,-0.0937 0.12882,-0.24604 0.24609,-0.45703 0.1171,-0.21089 0.24601,-0.42183 0.38672,-0.63281 0.14054,-0.21089 0.28116,-0.38667 0.42187,-0.52735 0.14054,-0.14057 0.28117,-0.18745 0.42188,-0.14062 0.65616,5e-5 1.14835,0.51567 1.47656,1.54687 0.42179,0.98443 0.63273,1.7813 0.63281,2.39063 z"
         style="letter-spacing:0.00255704px;stroke:#000000;font-family:Segoe Script;-inkscape-font-specification:Segoe Script"
         id="path4047"
         inkscape:connector-curvature="0" />
      <path
         d="m 890.13011,940.09892 c -8e-5,2.20317 -1.33602,5.64848 -4.00781,10.33594 -0.5157,0.89066 -1.23055,1.95706 -2.14453,3.19922 -0.91414,1.24221 -1.93367,2.53127 -3.0586,3.86719 -1.12507,1.33596 -2.29694,2.69533 -3.51562,4.07812 -1.21882,1.38283 -2.41413,2.66018 -3.58594,3.83203 -1.78131,1.78127 -3.73834,3.51564 -5.87109,5.20313 -2.13287,1.68751 -4.38287,3.21094 -6.75,4.57031 -2.36724,1.35938 -4.80474,2.44922 -7.3125,3.26953 -2.50786,0.82032 -4.98051,1.23047 -7.41797,1.23047 -3.23441,0 -6.25784,-0.58593 -9.07031,-1.75781 -2.81253,-1.17187 -5.26175,-2.97656 -7.34766,-5.41407 -2.08596,-2.43748 -3.72658,-5.49607 -4.92187,-9.17578 -1.19533,-3.67966 -1.79299,-8.02731 -1.79297,-13.04297 -2e-5,-3.42183 0.16404,-6.99605 0.49218,-10.72265 0.32811,-3.72652 0.74999,-7.4648 1.26563,-11.21485 0.51561,-3.74994 1.08983,-7.46478 1.72266,-11.14453 0.63279,-3.67962 1.27732,-7.23039 1.93359,-10.65234 0.42185,-2.34367 0.78513,-4.26555 1.08984,-5.76563 0.30467,-1.49991 0.5742,-2.88272 0.8086,-4.14843 0.23435,-1.26554 0.44529,-2.54288 0.63281,-3.83203 0.18748,-1.28898 0.42185,-2.89444 0.70312,-4.81641 0.18748,-1.3124 0.36326,-2.47256 0.52735,-3.48047 0.16404,-1.00771 0.29294,-1.83974 0.38672,-2.49609 0.18747,-1.1249 0.50388,-2.20303 0.94922,-3.23438 0.44528,-1.03114 1.00778,-1.9452 1.6875,-2.74219 0.67966,-0.79676 1.46481,-1.42958 2.35546,-1.89843 0.8906,-0.46864 1.87497,-0.70302 2.95313,-0.70313 2.24996,1.1e-4 3.91403,1.0548 4.99219,3.16406 -0.28129,1.45323 -0.57426,2.84776 -0.87891,4.1836 -0.30472,1.33604 -0.57425,2.754 -0.80859,4.2539 -1.17191,5.90635 -2.13285,10.68759 -2.88282,14.34375 -0.75003,3.65633 -1.28909,6.23446 -1.61718,7.73438 -0.56253,2.9532 -1.16019,6.14069 -1.79297,9.5625 -0.63284,3.42194 -1.21878,6.91412 -1.75781,10.47656 -0.53909,3.56255 -0.97269,7.07818 -1.30079,10.54688 -0.32815,3.46879 -0.49221,6.70316 -0.49218,9.70312 -3e-5,3.23441 0.25778,6.17581 0.77343,8.82422 0.5156,2.64846 1.34763,4.91018 2.4961,6.78516 1.14841,1.87501 2.62497,3.32814 4.42969,4.35937 1.80465,1.03127 3.99605,1.54689 6.57421,1.54688 2.81246,10e-6 5.57808,-0.62108 8.29688,-1.86328 2.7187,-1.24218 5.33198,-2.8242 7.83984,-4.7461 2.50776,-1.92185 4.88666,-4.04294 7.13672,-6.36328 2.24994,-2.32028 4.31243,-4.55856 6.1875,-6.71484 1.49993,-1.78122 2.81243,-3.31637 3.9375,-4.60547 1.12493,-1.28903 2.06243,-2.37887 2.8125,-3.26953 0.6093,-0.70309 1.30071,-1.42965 2.07422,-2.17969 0.77336,-0.74996 1.4882,-1.12496 2.14453,-1.125 0.74992,4e-5 1.12492,0.67973 1.125,2.03906 z"
         style="letter-spacing:0.00255704px;stroke:#000000;font-family:Segoe Script;-inkscape-font-specification:Segoe Script"
         id="path4049"
         inkscape:connector-curvature="0" />
      <path
         d="m 914.60143,879.7708 c -5e-5,3.04697 -0.79692,5.64853 -2.39063,7.80468 -1.54691,2.15635 -3.82035,3.23447 -6.82031,3.23438 -1.87503,9e-5 -3.96097,-0.28116 -6.25781,-0.84375 -2.25003,-0.56241 -3.37503,-1.47647 -3.375,-2.74219 -3e-5,-2.29678 0.71481,-4.48818 2.14453,-6.57422 1.42966,-2.08583 3.15231,-3.78505 5.16797,-5.09765 1.59371,-0.9374 2.6484,-1.40614 3.16406,-1.40625 2.67184,1.1e-4 4.73433,0.36339 6.1875,1.08984 1.45308,0.72667 2.17964,2.23839 2.17969,4.53516 z m 46.05468,57.16406 c 0.0468,0.98442 -0.3868,2.32036 -1.30078,4.00781 -0.91415,1.68754 -2.15633,3.5977 -3.72656,5.73047 -1.5704,2.13285 -3.39852,4.418 -5.48438,6.85547 -2.08601,2.43753 -4.27741,4.87502 -6.57421,7.3125 -2.62507,2.81252 -5.40241,5.51955 -8.33204,8.12109 -2.92974,2.60158 -6.05865,5.12111 -9.38671,7.5586 -6.56255,4.875 -12.42192,7.3125 -17.57813,7.3125 -5.67191,0 -10.07815,-1.89844 -13.21875,-5.69532 -3.14064,-3.84374 -5.27345,-8.48436 -6.39844,-13.92187 -1.12501,-5.3906 -1.68751,-10.94528 -1.6875,-16.66406 -10e-6,-2.39059 0.28124,-6.11715 0.84375,-11.17969 0.28124,-2.5312 0.56249,-4.71089 0.84375,-6.53906 0.28124,-1.82807 0.58592,-3.30463 0.91407,-4.42969 0.65623,-2.20307 2.03904,-4.12494 4.14843,-5.76563 2.15623,-1.73431 4.40623,-2.60149 6.75,-2.60156 1.2656,7e-5 1.89841,1.19538 1.89844,3.58594 -3e-5,1.59381 -0.15237,3.3985 -0.45703,5.41406 -0.30472,2.01568 -0.62112,4.00787 -0.94922,5.97656 -0.6094,3.70318 -1.05471,7.01958 -1.33594,9.94922 -0.28127,2.92973 -0.4219,5.47269 -0.42187,7.62891 -3e-5,4.7344 0.65622,9.51565 1.96875,14.34375 1.31247,4.92189 3.67965,7.38282 7.10156,7.38281 3.46871,10e-6 7.49996,-1.26561 12.09375,-3.79687 2.29682,-1.31249 4.5937,-2.76561 6.89063,-4.35938 2.29681,-1.59373 4.59369,-3.37498 6.89062,-5.34375 2.34369,-1.96872 4.59368,-3.94919 6.75,-5.9414 2.15618,-1.99216 4.26555,-4.04294 6.32813,-6.15235 2.06242,-2.10933 3.91398,-4.07808 5.55468,-5.90625 1.64055,-1.82808 3.07023,-3.51558 4.28907,-5.0625 0.0468,-0.0937 0.12882,-0.24604 0.24609,-0.45703 0.1171,-0.21089 0.24601,-0.42183 0.38672,-0.63281 0.14054,-0.21089 0.28116,-0.38667 0.42187,-0.52735 0.14054,-0.14057 0.28117,-0.18745 0.42188,-0.14062 0.65616,5e-5 1.14835,0.51567 1.47656,1.54687 0.42179,0.98443 0.63272,1.7813 0.63281,2.39063 z"
         style="letter-spacing:0.00255704px;stroke:#000000;font-family:Segoe Script;-inkscape-font-specification:Segoe Script"
         id="path4051"
         inkscape:connector-curvature="0" />
      <path
         d="m 1055.6508,934.82548 c -10e-5,0.56255 -0.07,1.23052 -0.2109,2.00391 -0.1407,0.77348 -0.3399,1.55864 -0.5976,2.35547 -0.258,0.79692 -0.5392,1.55864 -0.8438,2.28516 -0.3048,0.7266 -0.6212,1.30082 -0.9492,1.72265 -0.2814,0.37504 -0.6915,0.87895 -1.2305,1.51172 -0.5392,0.63285 -1.1368,1.32426 -1.793,2.07422 -0.6563,0.75003 -1.3712,1.53519 -2.1445,2.35547 -0.7735,0.82034 -1.5821,1.6055 -2.4258,2.35547 -2.9063,2.6719 -5.754,5.26174 -8.5429,7.76953 -2.7892,2.50783 -5.6603,4.72267 -8.6133,6.64453 -2.9532,1.92189 -6.0353,3.45704 -9.2461,4.60547 -3.211,1.14845 -6.6915,1.69923 -10.4414,1.65234 -1.7345,10e-6 -3.4805,-0.31639 -5.2383,-0.94922 -1.7579,-0.6328 -3.41021,-1.53514 -4.95703,-2.70703 -1.54693,-1.17186 -2.88287,-2.57811 -4.00781,-4.21875 -1.12505,-1.6406 -1.92193,-3.44529 -2.39062,-5.41406 -1.35943,1.40627 -2.78912,2.87111 -4.28907,4.39453 -1.50004,1.52346 -3.05864,3.05861 -4.67578,4.60547 -1.61723,1.54689 -3.29301,3.04689 -5.02734,4.5 -1.73441,1.45313 -3.51566,2.78907 -5.34375,4.00781 -1.03128,0.65626 -2.26175,1.35938 -3.69141,2.10938 -1.42971,0.75 -2.92971,1.44141 -4.5,2.07422 -1.57033,0.63281 -3.14064,1.14843 -4.71094,1.54687 -1.57033,0.39844 -2.98829,0.59766 -4.2539,0.59766 -1.92189,0 -3.57423,-0.59766 -4.95703,-1.79297 -1.38282,-1.19531 -2.53126,-2.66015 -3.44532,-4.39453 -0.91406,-1.73437 -1.59375,-3.58593 -2.03906,-5.55469 -0.44532,-1.96874 -0.66797,-3.72655 -0.66797,-5.27344 0,-3.09373 0.44531,-6.25779 1.33594,-9.49219 0.89062,-3.23434 2.05077,-6.38668 3.48047,-9.45703 1.42968,-3.07027 3.02342,-5.98824 4.78125,-8.7539 1.7578,-2.76558 3.48045,-5.22652 5.16797,-7.38282 1.78123,-2.24994 3.8906,-4.48822 6.32812,-6.71484 2.43748,-2.2265 4.96872,-4.21869 7.59375,-5.97656 2.62497,-1.75775 5.20309,-3.17572 7.73438,-4.25391 2.5312,-1.07805 4.7812,-1.61712 6.75,-1.61719 0.98432,7e-5 2.02729,7e-5 3.1289,0 1.10151,7e-5 2.19136,0.0587 3.26954,0.17579 1.07807,0.11725 2.13275,0.30475 3.16406,0.5625 1.03119,0.25788 1.96869,0.6446 2.8125,1.16015 0.42185,0.28132 0.91395,0.82038 1.47655,1.61719 0.5624,0.79694 1.0898,1.68756 1.582,2.67187 0.4922,0.98444 0.9023,1.96882 1.2305,2.95313 0.3281,0.98443 0.4921,1.75787 0.4922,2.32031 -10e-5,1.54693 -0.3516,3.60943 -1.0547,6.1875 -0.7501,3.23443 -1.4415,6.17583 -2.0742,8.82422 -0.6329,2.64848 -0.9493,5.37895 -0.9492,8.19141 -1e-4,1.59378 0.2577,3.22269 0.7734,4.88672 0.5156,1.66409 1.2539,3.1758 2.2149,4.53515 0.9608,1.3594 2.1327,2.47268 3.5156,3.33985 1.3827,0.86721 2.9413,1.3008 4.6758,1.30078 2.8593,2e-5 5.7889,-0.59764 8.789,-1.79297 2.9999,-1.19529 6.0351,-2.83591 9.1055,-4.92188 3.0702,-2.0859 6.1288,-4.49996 9.1758,-7.24218 3.0467,-2.74215 6.0467,-5.66012 9,-8.75391 0.2342,-0.28121 0.6444,-0.76167 1.2304,-1.44141 0.5859,-0.67964 1.1952,-1.35932 1.8282,-2.03906 0.6327,-0.67964 1.2538,-1.28901 1.8632,-1.82812 0.6093,-0.53902 1.0546,-0.80855 1.336,-0.8086 0.9842,5e-5 1.4764,0.96099 1.4765,2.88281 z m -62.57808,-5.83593 c -5e-5,-0.79682 -0.0469,-1.7812 -0.14062,-2.95313 -0.0938,-1.17182 -0.39849,-2.13275 -0.91406,-2.88281 -0.51568,-0.74994 -1.14849,-1.11322 -1.89844,-1.08984 -0.75005,0.0235 -1.50005,0.0352 -2.25,0.0352 -1.64067,6e-5 -3.2227,0.25787 -4.7461,0.77344 -1.52347,0.51568 -3.01175,1.23053 -4.46484,2.14453 -1.45316,0.91412 -2.84769,1.96881 -4.18359,3.16406 -1.33597,1.19537 -2.63675,2.44927 -3.90235,3.76172 -1.07815,1.07818 -2.21487,2.41411 -3.41015,4.00781 -1.19534,1.5938 -2.36722,3.33989 -3.51563,5.23829 -1.14846,1.89847 -2.26174,3.89066 -3.33984,5.97656 -1.07815,2.08597 -2.01565,4.14847 -2.8125,6.1875 -0.79689,2.03909 -1.42971,4.00784 -1.89844,5.90625 -0.46876,1.89846 -0.70314,3.62111 -0.70312,5.16797 -2e-5,0.46876 0.0586,1.08986 0.17578,1.86328 0.11717,0.77345 0.30467,1.52345 0.5625,2.25 0.25779,0.72657 0.60936,1.34767 1.05468,1.86328 0.4453,0.51564 0.99608,0.77345 1.65235,0.77344 2.15623,10e-6 4.85154,-0.67968 8.08594,-2.03907 4.40621,-1.87498 8.4023,-4.44138 11.98828,-7.69921 3.58589,-3.25779 6.64448,-7.01951 9.17578,-11.28516 3.6562,-6.60934 5.48432,-13.66402 5.48437,-21.16406 z"
         style="letter-spacing:0.00255704px;stroke:#000000;font-family:Segoe Script;-inkscape-font-specification:Segoe Script"
         id="path4053"
         inkscape:connector-curvature="0" />
      <path
         d="m 1209.0075,978.06767 c -10e-5,1.875 -0.5977,3.48047 -1.7929,4.81641 -1.1955,1.33593 -2.754,2.0039 -4.6758,2.0039 -0.8439,0 -1.5236,-0.1875 -2.0391,-0.5625 -0.6563,-0.51562 -1.3829,-1.20703 -2.1797,-2.07421 -0.7969,-0.86719 -1.6407,-1.95703 -2.5312,-3.26954 -1.7345,-2.67186 -3.3165,-5.47264 -4.7461,-8.40234 -1.4298,-2.92967 -2.5899,-5.51951 -3.4805,-7.76953 -0.2344,-0.65623 -0.4805,-1.25389 -0.7383,-1.79297 -0.2579,-0.53904 -0.5157,-1.10154 -0.7734,-1.6875 -0.2579,-0.58591 -0.5274,-1.21872 -0.8086,-1.89844 -0.2813,-0.67966 -0.586,-1.51169 -0.914,-2.49609 -1.3595,-4.03122 -2.3439,-6.67965 -2.9532,-7.94531 -0.6563,0.65628 -1.2891,1.16019 -1.8984,1.51172 -0.6095,0.35159 -1.254,0.6094 -1.9336,0.77343 -0.6798,0.1641 -1.3829,0.25785 -2.1094,0.28125 -0.7266,0.0235 -1.5118,0.0352 -2.3554,0.0352 -0.4689,3e-5 -1.0548,0.0938 -1.7579,0.28125 -0.7032,0.18753 -1.4649,0.39847 -2.2851,0.63281 -0.8204,0.23441 -1.629,0.49222 -2.4258,0.77344 -0.7969,0.28128 -1.5469,0.51566 -2.25,0.70312 -2.3438,0.65628 -4.711,1.24222 -7.1016,1.75782 -2.3907,0.51565 -4.8516,1.01956 -7.3828,1.51172 -2.5313,0.49221 -5.1797,0.96096 -7.9453,1.40625 -2.7657,0.44533 -5.6953,0.9258 -8.789,1.4414 -1.4063,0.2344 -2.7423,1.14846 -4.0079,2.74219 -1.2187,1.64064 -3.75,5.15627 -7.5937,10.54687 -3.75,5.34376 -6.9375,9.25782 -9.5625,11.74219 -2.5782,2.48437 -5.086,3.72656 -7.5234,3.72656 -3.0938,0 -5.6719,-0.60937 -7.7344,-1.82812 -2.3438,-1.5 -3.5157,-3.09375 -3.5156,-4.78125 -10e-5,-0.89062 0.5039,-1.53515 1.5117,-1.93359 1.0078,-0.39844 2.3789,-0.76172 4.1133,-1.08985 0.5624,-0.0469 1.8515,-1.1953 3.8671,-3.44531 1.9219,-2.15624 3.375,-3.93749 4.3594,-5.34375 1.9687,-2.57811 3.9726,-5.33201 6.0117,-8.26172 2.0391,-2.92966 4.3242,-6.22263 6.8555,-9.87891 1.2187,-1.87496 2.2968,-3.49215 3.2344,-4.85156 0.9374,-1.35933 1.7109,-2.50777 2.3203,-3.44531 0.6562,-0.93746 1.3945,-1.99215 2.2148,-3.16406 0.8203,-1.17183 1.7695,-2.48433 2.8477,-3.9375 0.4687,-0.6562 1.0312,-1.45308 1.6875,-2.39063 0.6562,-0.93745 1.4296,-1.99213 2.3203,-3.16406 0.8906,-1.2187 1.6992,-2.29682 2.4258,-3.23438 0.7265,-0.93744 1.3476,-1.78119 1.8633,-2.53125 0.5624,-0.74994 1.2773,-1.68743 2.1445,-2.8125 0.8671,-1.12493 1.8867,-2.46087 3.0586,-4.00781 0.3749,-0.46868 1.1132,-1.57024 2.2148,-3.30469 1.1015,-1.7343 2.5898,-4.12492 4.4649,-7.17187 2.6249,-4.35929 4.3358,-7.54679 5.1328,-9.5625 5.4843,-13.3124 9.6093,-19.96864 12.375,-19.96875 1.2187,1.1e-4 2.203,0.10557 2.9531,0.31641 0.7499,0.21104 1.3359,0.5626 1.7578,1.05468 0.4218,0.49229 0.7031,1.14854 0.8438,1.96875 0.1405,0.82042 0.2108,1.81651 0.2109,2.98828 -10e-5,0.79698 -10e-5,1.5001 0,2.10938 -10e-5,0.60947 -0.024,1.10166 -0.07,1.47656 -0.047,0.7501 -0.094,1.71103 -0.1406,2.88281 -0.047,1.17197 -0.1173,2.55478 -0.211,4.14844 2.3437,4.92196 4.5703,10.21883 6.6797,15.89063 1.0781,2.85944 2.2148,5.98835 3.4102,9.38672 1.1952,3.39849 2.4725,7.13677 3.832,11.21484 1.3593,4.0313 2.5546,7.47661 3.586,10.33594 1.0311,2.85941 1.8748,5.17972 2.5312,6.96093 0.6561,1.78129 1.4413,3.82035 2.3555,6.11719 0.9139,2.2969 2.0038,4.89846 3.2695,7.80469 0.4686,1.07814 2.2265,3.6797 5.2734,7.80469 2.9999,4.12501 4.4999,7.07813 4.5,8.85937 z m -31.1484,-41.55469 c -0.8438,-2.57807 -1.7579,-5.35541 -2.7422,-8.33203 -0.9844,-2.9765 -2.004,-5.95306 -3.0586,-8.92968 -1.0547,-2.9765 -2.1329,-5.84759 -3.2344,-8.61329 -1.1016,-2.76555 -2.1914,-5.22648 -3.2695,-7.38281 -2.6251,3.56258 -5.1094,6.98445 -7.4531,10.26563 -2.3438,3.28131 -4.6055,6.57428 -6.7852,9.8789 -2.1797,3.30475 -4.336,6.69146 -6.4687,10.16016 -2.1329,3.46879 -4.3008,7.17192 -6.5039,11.10937 0.5156,0.18754 0.9843,0.28129 1.4062,0.28125 0.7031,4e-5 1.6054,-0.0585 2.7071,-0.17578 1.1015,-0.11715 2.2265,-0.25777 3.375,-0.42187 1.1483,-0.16403 2.2499,-0.33981 3.3046,-0.52735 1.0547,-0.18746 1.9101,-0.35152 2.5665,-0.49218 1.1249,-0.28121 2.0975,-0.51559 2.9179,-0.70313 0.8203,-0.18746 1.6054,-0.37496 2.3555,-0.5625 0.7499,-0.18746 1.5585,-0.38668 2.4258,-0.59765 0.8671,-0.2109 1.9101,-0.45699 3.1289,-0.73829 2.7187,-0.70308 5.414,-1.41792 8.0859,-2.14453 2.6718,-0.72651 5.0859,-1.41792 7.2422,-2.07422 z"
         style="letter-spacing:0.00255704px;stroke:#000000;font-family:Segoe Script;-inkscape-font-specification:Segoe Script"
         id="path4055"
         inkscape:connector-curvature="0" />
      <path
         d="m 1296.0569,968.43486 c 1.125,1e-5 1.8281,0.38673 2.1094,1.16016 0.2812,0.77345 0.4687,1.62891 0.5625,2.5664 0.1406,1.07814 -0.4337,2.39063 -1.7226,3.9375 -1.2892,1.54688 -2.965,3.04688 -5.0274,4.5 -2.0626,1.45313 -4.3594,2.69531 -6.8906,3.72656 -2.5313,1.03125 -4.9688,1.54688 -7.3125,1.54688 -0.5626,0 -1.5587,-0.12891 -2.9883,-0.38672 -1.4297,-0.25781 -3.0821,-0.5625 -4.957,-0.91406 -1.8751,-0.35157 -3.8673,-0.75 -5.9766,-1.19531 -2.1094,-0.44532 -4.1602,-0.84375 -6.1523,-1.19532 -1.9923,-0.35156 -3.8087,-0.65625 -5.4492,-0.91406 -1.6407,-0.25781 -2.9063,-0.38672 -3.7969,-0.38672 -2.2969,0 -4.1954,0.22266 -5.6953,0.66797 -1.5001,0.44531 -2.8594,1.01953 -4.0782,1.72266 -1.125,0.60937 -2.1211,1.24218 -2.9882,1.89843 -0.8672,0.65625 -1.7227,1.25391 -2.5664,1.79297 -0.8438,0.53906 -1.711,0.98437 -2.6016,1.33594 -0.8906,0.35156 -1.8985,0.52734 -3.0234,0.52734 -0.6094,0 -1.1485,-0.1875 -1.6172,-0.5625 -0.4688,-0.375 -0.8789,-0.85547 -1.2305,-1.4414 -0.3516,-0.58594 -0.6445,-1.24219 -0.8789,-1.96875 -0.2344,-0.72657 -0.3985,-1.44141 -0.4922,-2.14453 2.5781,-3.09375 5.1797,-5.9414 7.8047,-8.54297 2.625,-2.60155 5.25,-5.16796 7.875,-7.69922 2.625,-2.53123 5.2382,-5.10935 7.8398,-7.73438 2.6016,-2.62497 5.2148,-5.48434 7.8399,-8.57812 3.1406,-3.70309 5.9413,-7.19527 8.4023,-10.47656 2.4609,-3.28121 4.5586,-6.4687 6.293,-9.5625 -0.9844,-0.4687 -2.004,-0.66792 -3.0586,-0.59766 -1.0547,0.0704 -2.3321,0.17583 -3.832,0.31641 -1.3126,0.14067 -2.4141,0.23442 -3.3047,0.28125 -0.8907,0.0469 -1.7696,0.0938 -2.6367,0.14062 -0.8673,0.0469 -1.793,0.11724 -2.7774,0.21094 -0.9844,0.0938 -2.2031,0.23443 -3.6562,0.42187 -1.6407,0.23443 -3.0821,0.41021 -4.3242,0.52735 -1.2423,0.11724 -2.3087,0.17583 -3.1993,0.17578 -10.2656,5e-5 -15.3984,-2.69526 -15.3984,-8.08594 0,-1.49994 0.539,-2.73041 1.6172,-3.6914 1.0781,-0.96088 2.3672,-1.44135 3.8672,-1.44141 0.4218,6e-5 0.9023,0.0587 1.4414,0.17578 0.539,0.11725 1.1015,0.25788 1.6875,0.42188 0.5859,0.16412 1.1367,0.3399 1.6523,0.52734 0.5156,0.18756 0.9375,0.32819 1.2656,0.42187 2.3906,0.65632 4.9219,0.98444 7.5938,0.98438 2.4375,6e-5 5.0156,-0.15228 7.7344,-0.45703 2.7187,-0.30463 5.4843,-0.63275 8.2968,-0.98438 2.8125,-0.3515 5.6484,-0.67962 8.5079,-0.98437 2.8593,-0.30462 5.6249,-0.45697 8.2968,-0.45703 0.75,6e-5 1.5586,0.0821 2.4258,0.24609 0.8671,0.16413 1.6757,0.43366 2.4258,0.80859 0.7499,0.37507 1.3827,0.86725 1.8984,1.47657 0.5156,0.60943 0.7734,1.35943 0.7735,2.25 l 0,0.28125 c -1.3595,2.57818 -2.672,4.86333 -3.9375,6.85547 -1.2657,1.99223 -2.5899,3.91411 -3.9727,5.76562 -1.3829,1.85161 -2.8594,3.71489 -4.4297,5.58984 -1.5703,1.87504 -3.3164,3.98442 -5.2383,6.32813 -1.5469,1.92191 -3.3633,3.98441 -5.4492,6.1875 -2.086,2.20315 -4.1367,4.40627 -6.1523,6.60937 -2.0157,2.20315 -3.8321,4.3008 -5.4492,6.29297 -1.6173,1.9922 -2.7305,3.71486 -3.3399,5.16797 0.047,0.0938 0.4219,0.16407 1.125,0.21094 0.7031,0.0469 1.4765,0.0703 2.3203,0.0703 0.8437,10e-6 1.6641,10e-6 2.461,0 0.7968,10e-6 1.3124,10e-6 1.5468,0 1.4063,10e-6 3.0234,0.1172 4.8516,0.35156 1.8281,0.23439 3.8437,0.50392 6.0469,0.8086 2.2031,0.30469 4.582,0.57423 7.1367,0.80859 2.5546,0.23439 5.2617,0.35157 8.1211,0.35156 1.5468,10e-6 3.0351,-0.31639 4.4648,-0.94921 1.4297,-0.63281 2.7422,-1.32421 3.9375,-2.07422 1.1953,-0.74999 2.2617,-1.4414 3.1993,-2.07422 0.9374,-0.6328 1.6639,-0.94921 2.1796,-0.94922 z"
         style="letter-spacing:0.00255704px;stroke:#000000;font-family:Segoe Script;-inkscape-font-specification:Segoe Script"
         id="path4057"
         inkscape:connector-curvature="0" />
      <path
         d="m 1435.3486,925.82548 c -2e-4,1.78131 -0.4455,3.80865 -1.336,6.08204 -0.8907,2.27348 -2.1095,4.39457 -3.6562,6.36328 -1.9689,2.53129 -4.1837,5.0391 -6.6445,7.52343 -2.4611,2.48441 -5.0275,4.86332 -7.6993,7.13672 -2.672,2.27347 -5.3907,4.38284 -8.1562,6.32813 -2.7657,1.94533 -5.4493,3.63283 -8.0508,5.0625 -2.6017,1.4297 -5.0509,2.5547 -7.3477,3.375 -2.2969,0.82032 -4.3125,1.23048 -6.0468,1.23047 -2.2032,10e-6 -4.1251,-0.37499 -5.7657,-1.125 -1.6407,-0.74999 -3.0586,-1.76952 -4.2539,-3.0586 -1.1953,-1.28904 -2.1914,-2.80076 -2.9882,-4.53515 -0.797,-1.73435 -1.4884,-3.56248 -2.0743,-5.48438 -0.586,-1.92184 -1.0664,-3.90231 -1.4414,-5.9414 -0.375,-2.03903 -0.7266,-4.0195 -1.0547,-5.94141 -1.1719,1.78129 -2.4961,3.78519 -3.9726,6.01172 -1.4766,2.22659 -3.0235,4.48831 -4.6406,6.78515 -1.6173,2.2969 -3.2579,4.51175 -4.9219,6.64454 -1.6641,2.13283 -3.2227,3.99611 -4.6758,5.58984 -1.6407,1.73439 -3.4336,3.39845 -5.3789,4.99219 -1.9454,1.59376 -4.0079,2.98828 -6.1875,4.18359 -2.1797,1.19532 -4.4649,2.15625 -6.8555,2.88281 -2.3906,0.72657 -4.8516,1.08985 -7.3828,1.08985 -3.7031,0 -6.6094,-1.52344 -8.7187,-4.57032 -2.0625,-3.04686 -3.0938,-6.56248 -3.0938,-10.54687 0,-1.87498 0.1524,-3.83201 0.4571,-5.87109 0.3046,-2.03904 0.6562,-4.06638 1.0546,-6.08204 0.3985,-2.01559 0.7852,-3.99606 1.1602,-5.9414 0.375,-1.94528 0.6328,-3.78512 0.7734,-5.51953 0.047,-0.70309 0.082,-1.58199 0.1055,-2.63672 0.023,-1.05465 0.035,-2.28511 0.035,-3.69141 -10e-5,-1.26558 -10e-5,-2.42573 0,-3.48047 -10e-5,-1.05463 0.023,-2.06244 0.07,-3.02343 0.047,-0.96089 0.1171,-1.91011 0.2109,-2.84766 0.094,-0.93744 0.2344,-1.92182 0.4219,-2.95313 0.2812,-1.59369 0.914,-2.9765 1.8984,-4.14843 0.9844,-1.17181 2.5312,-1.75775 4.6406,-1.75782 4.3125,7e-5 6.4688,2.97663 6.4688,8.92969 0,1.03131 -0.1055,2.16802 -0.3164,3.41016 -0.211,1.24224 -0.4571,2.5313 -0.7383,3.86719 -0.2813,1.33598 -0.5742,2.69535 -0.8789,4.07812 -0.3047,1.38286 -0.5742,2.73051 -0.8086,4.04297 -0.4688,1.82816 -0.9375,3.65629 -1.4062,5.48437 -0.4688,1.82816 -0.9024,3.60941 -1.3008,5.34375 -0.3985,1.73441 -0.7149,3.41019 -0.9492,5.02735 -0.2344,1.61721 -0.3516,3.10549 -0.3516,4.46484 0,0.70315 0.094,1.4883 0.2812,2.35547 0.1875,0.8672 0.4688,1.68752 0.8438,2.46094 0.375,0.77345 0.8789,1.41798 1.5117,1.93359 0.6328,0.51564 1.3711,0.77345 2.2149,0.77344 2.4843,1e-5 4.9921,-0.69139 7.5234,-2.07422 2.5312,-1.3828 4.957,-3.09373 7.2773,-5.13281 2.3203,-2.03904 4.5,-4.21873 6.5391,-6.53906 2.039,-2.32029 3.832,-4.44138 5.3789,-6.36329 1.5,-1.92184 2.9882,-4.19527 4.4649,-6.82031 1.4765,-2.62496 2.8827,-5.35542 4.2187,-8.1914 1.3359,-2.83589 2.6132,-5.66011 3.832,-8.47266 1.2187,-2.81244 2.3203,-5.34369 3.3047,-7.59375 2.2031,-5.15618 4.1718,-7.7343 5.9063,-7.73438 1.2655,8e-5 2.1093,0.19929 2.5312,0.59766 0.4218,0.39851 0.6328,1.2071 0.6328,2.42578 0,0.93757 -0.1055,2.20319 -0.3164,3.79688 -0.211,1.59381 -0.4571,3.25787 -0.7383,4.99218 -0.2813,1.73444 -0.5274,3.3985 -0.7382,4.99219 -0.2111,1.5938 -0.3165,2.83599 -0.3164,3.72656 -10e-5,0.79693 0.012,1.76958 0.035,2.91797 0.023,1.14849 0.059,2.33208 0.1055,3.55078 0.047,1.2188 0.1288,2.42583 0.2461,3.6211 0.1171,1.19535 0.2694,2.21488 0.457,3.05859 0.1874,0.98441 0.5156,2.19144 0.9844,3.6211 0.4687,1.42972 1.0663,2.82425 1.793,4.18359 0.7264,1.3594 1.6053,2.51956 2.6367,3.48047 1.0311,0.96096 2.2264,1.44143 3.5859,1.4414 2.5312,3e-5 5.4023,-0.74997 8.6133,-2.25 3.2108,-1.49997 6.5038,-3.43356 9.8789,-5.80078 3.3749,-2.36715 6.7264,-5.01558 10.0547,-7.94531 3.328,-2.92964 6.4217,-5.82417 9.2812,-8.68359 1.1249,-1.12495 2.2616,-2.24995 3.4102,-3.375 1.1483,-1.12495 2.203,-2.06245 3.1641,-2.8125 0.9608,-0.74995 1.7342,-1.24213 2.3203,-1.47657 0.5858,-0.23431 0.8787,-0.0468 0.8789,0.5625 z"
         style="letter-spacing:0.00255704px;stroke:#000000;font-family:Segoe Script;-inkscape-font-specification:Segoe Script"
         id="path4059"
         inkscape:connector-curvature="0" />
      <path
         d="m 1488.648,925.96611 c -10e-5,0.28131 -0.024,0.69146 -0.07,1.23047 -0.047,0.53912 -0.1641,1.07818 -0.3516,1.61719 -0.1875,0.53911 -0.4102,1.01958 -0.6679,1.4414 -0.2579,0.42193 -0.5978,0.63287 -1.0196,0.63281 -0.2813,6e-5 -0.75,-0.0117 -1.4062,-0.0351 -0.6563,-0.0234 -1.3477,-0.0585 -2.0742,-0.10547 -0.7267,-0.0468 -1.4181,-0.082 -2.0743,-0.10547 -0.6563,-0.0234 -1.125,-0.0351 -1.4062,-0.0352 -8.9532,0.56256 -16.4063,3.8438 -22.3594,9.84375 -5.8594,5.85942 -10.9219,13.68753 -15.1875,23.48438 -0.7969,2.01564 -1.582,4.10158 -2.3554,6.25781 -0.7735,2.15626 -1.5118,4.4297 -2.2149,6.82031 -0.375,1.31251 -0.6445,2.47266 -0.8086,3.48047 -0.1641,1.00782 -0.4336,2.07422 -0.8086,3.19922 -0.094,0.375 -0.4922,0.73828 -1.1953,1.08985 -0.7031,0.35156 -1.4883,0.66796 -2.3555,0.94921 -0.8672,0.28125 -1.6992,0.51563 -2.4961,0.70313 -0.7968,0.1875 -1.3359,0.28125 -1.6171,0.28125 -3.2344,0.1875 -5.0626,-3.16406 -5.4844,-10.05469 -0.1407,-1.87499 -0.1992,-3.57421 -0.1758,-5.09765 0.023,-1.52343 0.082,-2.99999 0.1758,-4.42969 0.094,-1.42967 0.2226,-2.92967 0.3867,-4.5 0.1641,-1.57029 0.3398,-3.33982 0.5273,-5.3086 0.2344,-2.43747 0.5157,-5.24997 0.8438,-8.4375 0.3281,-3.18746 0.7031,-6.39839 1.125,-9.63281 0.4219,-3.23433 0.8672,-6.31635 1.3359,-9.24609 0.4688,-2.92963 0.961,-5.35541 1.4766,-7.27735 0.5156,-2.20306 1.2304,-3.84368 2.1445,-4.92187 0.9141,-1.07806 2.2617,-1.664 4.043,-1.75781 0.4687,6e-5 0.9726,0.12897 1.5117,0.38672 0.5391,0.25787 1.0312,0.59772 1.4766,1.01953 0.4453,0.42194 0.8203,0.86725 1.125,1.33593 0.3046,0.46882 0.4804,0.89069 0.5273,1.26563 0.047,1.17194 0.023,2.44928 -0.07,3.83203 -0.094,1.38287 -0.2578,2.81256 -0.4922,4.28906 -0.2344,1.47662 -0.5156,2.9649 -0.8437,4.46485 -0.3282,1.50005 -0.6563,2.92973 -0.9844,4.28906 -0.6563,2.67192 -1.1602,4.95707 -1.5117,6.85547 -0.3516,1.89847 -0.6446,3.73831 -0.8789,5.51953 -0.2344,1.78128 -0.4688,3.69144 -0.7032,5.73047 -0.2344,2.03909 -0.539,4.55861 -0.914,7.55859 0.7968,-1.78123 1.4882,-3.30466 2.0742,-4.57031 0.5859,-1.2656 1.1133,-2.37888 1.582,-3.33984 0.4688,-0.96091 0.9024,-1.81638 1.3008,-2.56641 0.3984,-0.74997 0.832,-1.53512 1.3008,-2.35547 0.4687,-0.82028 0.9843,-1.72262 1.5469,-2.70703 0.5624,-0.98434 1.2656,-2.17965 2.1093,-3.58594 3.2813,-5.43745 6.7969,-9.87886 10.5469,-13.32422 3.75,-3.44525 7.3593,-5.91791 10.8281,-7.41797 3.9375,-1.87493 7.1719,-2.88275 9.7032,-3.02343 1.2187,-0.0468 2.6718,0.0235 4.3593,0.21093 1.6875,0.18757 3.3047,0.53913 4.8516,1.05469 1.5468,0.51569 2.871,1.18366 3.9727,2.00391 1.1015,0.82037 1.6522,1.81646 1.6523,2.98828 z"
         style="letter-spacing:0.00255704px;stroke:#000000;font-family:Segoe Script;-inkscape-font-specification:Segoe Script"
         id="path4061"
         inkscape:connector-curvature="0" />
    </g>
  </g>
</svg>
