path	order	name	itemNr	price	tags	intro	text	_extratext	_feedback	picture1	picture2	picture3	picture4	picture5	picture6	picture7	picture8	picture9	picture10	picture11
1_Necklaces	100	Necklace flower	2016.06.001	11,9	necklace, flower			resources/100_Necklace flower_extratext.html	resources/100_Necklace flower_feedback.html	IMG_3798										
2_Bracelets	101	Armband with multi-color flowers	2016.06.002	12,9	armband, oval-shaped, acrylic,beads					IMG_3799	IMG_3802	IMG_3800								
3_Rings	102	Ring stone orange	2016.06.003	24,9	ring, stone, gold color					IMG_3939	IMG_3942	IMG_3943	IMG_3946							
2_Bracelets	103	Bracelet gold finished brass	2016.06.004	9,9	bracelet, gold, brass					IMG_4090	IMG_4091									
4_Earrings	104	Earrings blue flower	2016.06.005	7,9	earrings, flower, blue					IMG_4092										
4_Earrings	105	Earrings pink flower	2016.06.006	7,9	earrings, flower, pink					IMG_4093										
4_Earrings	106	Earrings white	2016.06.007	7	earrings, white					IMG_4094										
4_Earrings	107	Earrings yellow	2016.06.008	9,5	earrings, yellow					IMG_4095										
4_Earrings	108	Earrings olive green	2016.06.009	8,5	earrings, olive green, plastic			resources/100_Necklace flower_extratext.html	resources/100_Necklace flower_feedback.html	IMG_4096	IMG_4097	IMG_4098								
2_Bracelets	109	Bracelet hearts	2016.06.010	10	bracelet, hearts, metal					IMG_4099	IMG_4100									
4_Earrings	110	Earrings multi color beads	2016.06.011	6,5	earrings, beads, silver-plated					IMG_4101										
1_Necklaces	111	Necklace blue strand suede	2016.06.012	12,9	necklace, blue, strand suede, white beads, steel					IMG_4105										
2_Bracelets	112	Bracelet turquoise	2016.06.013	8,9	bracelet, blue, turquoise, beads					IMG_4107										
4_Earrings	113	Earrings blue-green pearl	2016.06.014	5,5	earrings, blue-green, real pearl					IMG_4108	IMG_4109									
4_Earrings	114	Earrings white glass	2016.06.015	4,5	earrings, white, glass, antique, coated steel					IMG_4110										
2_Bracelets	115	Bracelet charm Elle	2016.06.016	21	bracelet, silver, metal link					IMG_4111										
1_Necklaces	116	Necklace silver cross-heart	2016.06.017	9,9	necklace, silver-plated					IMG_4263	IMG_4264	IMG_4265	IMG_4112							
1_Necklaces	117	Necklace silver flower	2016.06.018	9,9	necklace, silver-plated					IMG_4113	IMG_4114									
2_Bracelets	118	Bracelet white-black pearl with silver-coated heart pendant	2016.06.019	30	bracelet, white, black, pearl, metal					IMG_4116										
4_Earrings	119	Earrings clear-white beads	2016.06.020	8,95	earrings, beads, metal gold					IMG_4117										
3_Rings	120	Ring swarovski brown	2016.06.021	20	ring, swarovski, beads, copper					IMG_4280	IMG_4281	IMG_4122	IMG_4119							
5_Sets	121	Necklace + earrings brown	2016.06.022	36	necklace, earrings, acrylic stone, beads					IMG_4128										
5_Sets	122	Necklace, bracelet and earrings peach pearl	2016.06.023	90	Necklace, bracelet and earrings, real pearls					IMG_4129										
5_Sets	123	Necklace, bracelet and earrings white pearl	2016.06.024	70	necklace, bracelet and earrings, white pearls, imitation					IMG_4131										
4_Earrings	124	Earrings, white coated pearl	2016.06.025	14	earrings,white pearl, acrylic, swarovski crystal					IMG_4132	IMG_4133									
2_Bracelets	125	Bracelet Zwarovski brown beads	2016.06.026	32	bracelet, brown, Swarovski crystals, acrylic beads					IMG_4274	IMG_4137	IMG_4275								
1_Necklaces	126	Necklace faceted bead strand	2016.06.027	10	necklace, black, acrylic beads					IMG_4138										
5_Sets	127	Necklace and bracelet blue-white beads	2016.06.028	9	necklace, bracelet, beads, acrylic, silver					IMG_4139	IMG_4140	IMG_4141								
2_Bracelets	128	Bracelet silver	2016.06.029	8,9	bracelet, silver-plated, metal brass					IMG_4179	IMG_4180	IMG_4181								
4_Earrings	129	Earrings pear-shaped pearl	2016.06.030	11	earrings,pear-shaped, pearl, diamond, imitation					IMG_4183	IMG_4184	IMG_4186								
4_Earrings	130	Earrings white coated pearl	2016.06.031	120	earrings, acrylic pearl, gold hook					IMG_4187	IMG_4188									
4_Earrings	131	Earrings diamond studs, silver-plated	2016.06.032	48	earrings, diamond, silver, metal					IMG_4189	IMG_4190									
4_Earrings	132	Earring red cross beads	2016.06.033	6	earrings,red beads, zircon, imitation					IMG_4195										
4_Earrings	133	Earrings dangling red beads	2016.06.034	9	earrings, red, beads, gold-plated					IMG_4197										
4_Earrings	134	Earrings antique blue Zwarovski	2016.06.035	336	earrings, blue, Zwarovski beads, silver					IMG_4201	IMG_4203	IMG_4206	IMG_4207							
1_Necklaces	135	Necklace green acrylic flowers	2016.06.036	60	earrings, light green, beads, acrylic, imitation, metal wire					IMG_4211	IMG_4227	IMG_4228	IMG_4229							
1_Necklaces	136	Necklace pearl flower beads	2016.06.037	16	necklace, real pearl, acrylic beads					IMG_4212	IMG_4213	IMG_4214								
1_Necklaces	137	Necklace white-coated pearl with gold-diamond ring beads	2016.06.038	48	necklace, white, gold-plated, diamond stud, imitation					IMG_4215	IMG_4216	IMG_4217	IMG_4362							
1_Necklaces	138	Necklace blue beads with silver heart shape	2016.06.039	9,9	necklace, blue oval beads, heart-shaped, silver-plated					IMG_4348	IMG_4218	IMG_4219								
1_Necklaces	139	Necklace blue oval-shaped bead, diamond studs	2016.06.040	9,9	necklace, blue-oval-shaped, glass beads,brass, diamond, imitation					IMG_4220	IMG_4221	IMG_4161	IMG_4168	IMG_4353	IMG_4357					
1_Necklaces	140	Necklace spider chain gold-polish	2016.06.041	9,9	necklace, gold-polish chain					IMG_4222	IMG_4223	IMG_4224								
1_Necklaces	141	Necklace gold and black chain with diamond studs	2016.06.042	9,9	necklace, black, gold, diamond strands, imitation					IMG_4297	IMG_4225	IMG_4226	IMG_4352							
1_Necklaces	142	Necklace gold and black chain with diamond studs	2016.06.043	9,9	necklace, black, gold-polish strands, diamond studs, imitation					IMG_4230	IMG_4231	IMG_4360								
1_Necklaces	143	Necklace pearl beads with black beads	2016.06.044	10,9	necklace, black beads, pearl beads, imitation					IMG_4232	IMG_4233									
1_Necklaces	144	Necklace silver wired with white crystal beads	2016.06.045	8	necklace, silver, wire, crystal beads					IMG_4234	IMG_4235									
1_Necklaces	145	Necklace rose wired with white crystal beads	2016.06.046	8	necklace, rose, wire, crystal beads					IMG_4344	IMG_4236	IMG_4237								
1_Necklaces	146	Necklace silver-polish wired ball with white crystal beads	2016.06.047	8	necklace, silver, wire, crystal beads					IMG_4346	IMG_4294	IMG_4238	IMG_4239							
1_Necklaces	147	Necklace gold-polished strands with leaf	2016.06.048	15	necklace, gold-plated, imitation					IMG_4243	IMG_4241	IMG_4242								
1_Necklaces	148	Necklace silver-polished strands with leaf	2016.06.049	15	necklace, silver-plated, imitation					IMG_4244	IMG_4245	IMG_4246								
1_Necklaces	149	Necklace peach pearls	2016.06.050	32	necklace, peach, pearl					IMG_4290	IMG_4247	IMG_4248	IMG_4249	IMG_4250						
1_Necklaces	150	Necklace cube white with Zwarovski	2016.06.051	151	necklace, silver, wire, crystal beads					IMG_4251	IMG_4252	IMG_4253								
1_Necklaces	151	Necklace black and gold strands chains with crystal beads	2016.06.052	10,9	necklace, black, gold, metal, crystals, imitation					IMG_4256	IMG_4257	IMG_4259	IMG_4354							
1_Necklaces	152	Necklace black, grey and silver Zwarovski beads	2016.06.053	500	necklace, black, grey, crystals, silver					IMG_4260	IMG_4261	IMG_4262								
1_Necklaces	153	Necklace golden cross with red stone	2016.06.054	12	necklace, golden, red stone					IMG_4286	IMG_4287									
1_Necklaces	154	Necklace black cross	2016.06.055	10	necklace, black					IMG_4288	IMG_4289									
1_Necklaces	155	Necklace white-golden	2016.06.056	8,95	necklace, white-golden					IMG_4291	IMG_4298	IMG_4300	IMG_3883							